{
  "images" : [
    {
      "filename" : "Mobile-BG-01@1x.png",
      "idiom" : "universal",
      "scale" : "1x"
    },
    {
      "filename" : "Mobile-BG-01@2x.png",
      "idiom" : "universal",
      "scale" : "2x"
    },
    {
      "filename" : "Mobile-BG-01@3x.png",
      "idiom" : "universal",
      "scale" : "3x"
    }
  ],
  "info" : {
    "author" : "xcode",
    "version" : 1
  }
}
